id;statut;etiquettes;niveau;matiere;detail;horaires_disponibilites;date_rendez_vous;note_apprenant;note_aidant;commentaire_apprenant;commentaire_aidant;commentaire_enseignant;commentaire_referent;date_limite;date_creation;date_modification;date_archivage
1;RDV_PROPOSE;"";SIXIEME;NSI;../fake-data/blob/hipster.txt;Legacy Rustic Garden;2020-04-17T16:50:47;9;10;../fake-data/blob/hipster.txt;../fake-data/blob/hipster.txt;../fake-data/blob/hipster.txt;../fake-data/blob/hipster.txt;2020-04-18T10:34:43;2020-04-18T09:23:05;2020-04-18T08:46:14;2020-04-18T01:46:47
2;EN_COURS;"";SIXIEME;MATHS;../fake-data/blob/hipster.txt;Movies morph;2020-04-17T19:49:34;9;9;../fake-data/blob/hipster.txt;../fake-data/blob/hipster.txt;../fake-data/blob/hipster.txt;../fake-data/blob/hipster.txt;2020-04-17T21:19:43;2020-04-17T14:19:17;2020-04-18T07:13:15;2020-04-18T04:43:37
3;RDV_PROPOSE;"kjywx,vk";SECONDE;BIOLOGIE;../fake-data/blob/hipster.txt;Multi-layered reintermediate;2020-04-18T00:17:12;5;7;../fake-data/blob/hipster.txt;../fake-data/blob/hipster.txt;../fake-data/blob/hipster.txt;../fake-data/blob/hipster.txt;2020-04-18T07:08:03;2020-04-18T12:23:51;2020-04-17T15:50:41;2020-04-17T21:05:47
4;SOUTIEN_EFFECTUE;"gqsibt,ofw,zyxvlq,n,n";SIXIEME;SNT;../fake-data/blob/hipster.txt;International Ergonomic Rubber Gloves;2020-04-18T06:03:35;3;7;../fake-data/blob/hipster.txt;../fake-data/blob/hipster.txt;../fake-data/blob/hipster.txt;../fake-data/blob/hipster.txt;2020-04-18T01:23:48;2020-04-18T10:30:15;2020-04-18T10:27:53;2020-04-18T02:20:51
5;SOUTIEN_EFFECTUE;"pyb,himyy,qkioa";TERMINALE;CHIMIE;../fake-data/blob/hipster.txt;Generic Pre-emptive;2020-04-17T22:58:03;2;5;../fake-data/blob/hipster.txt;../fake-data/blob/hipster.txt;../fake-data/blob/hipster.txt;../fake-data/blob/hipster.txt;2020-04-18T07:21:57;2020-04-18T07:47:01;2020-04-18T01:17:40;2020-04-17T16:26:46
6;SOUTIEN_NON_EFFECTUE;"zhojhf";CINQUIEME;PHYSIQUE;../fake-data/blob/hipster.txt;Senior;2020-04-17T17:01:25;9;2;../fake-data/blob/hipster.txt;../fake-data/blob/hipster.txt;../fake-data/blob/hipster.txt;../fake-data/blob/hipster.txt;2020-04-17T23:30:21;2020-04-18T10:52:20;2020-04-18T03:10:09;2020-04-18T08:31:25
7;SOUTIEN_EFFECTUE;"orpu,dw";TERMINALE;MECANIQUE;../fake-data/blob/hipster.txt;innovative;2020-04-17T13:53:22;6;1;../fake-data/blob/hipster.txt;../fake-data/blob/hipster.txt;../fake-data/blob/hipster.txt;../fake-data/blob/hipster.txt;2020-04-18T07:29:51;2020-04-18T00:32:35;2020-04-18T12:37:03;2020-04-18T02:27:50
8;RDV_PROPOSE;"";PREMIERE;SNT;../fake-data/blob/hipster.txt;transparent blue functionalities;2020-04-18T11:49:55;4;6;../fake-data/blob/hipster.txt;../fake-data/blob/hipster.txt;../fake-data/blob/hipster.txt;../fake-data/blob/hipster.txt;2020-04-17T16:16:40;2020-04-17T19:25:12;2020-04-18T00:56:36;2020-04-17T17:14:59
9;ANNULE;"ivmfx,qmukzj,wufvkb,rpsa";SECONDE;MATHS;../fake-data/blob/hipster.txt;back-end Soap;2020-04-17T19:32:41;1;5;../fake-data/blob/hipster.txt;../fake-data/blob/hipster.txt;../fake-data/blob/hipster.txt;../fake-data/blob/hipster.txt;2020-04-17T20:31:22;2020-04-17T17:39:29;2020-04-17T22:29:02;2020-04-17T18:53:11
10;RDV_PROPOSE;"myf,urzh,qgrnj,spssv,ez,r";SIXIEME;MECANIQUE;../fake-data/blob/hipster.txt;flexibility Savings Account revolutionize;2020-04-18T03:56:00;2;2;../fake-data/blob/hipster.txt;../fake-data/blob/hipster.txt;../fake-data/blob/hipster.txt;../fake-data/blob/hipster.txt;2020-04-18T08:07:21;2020-04-18T01:01:52;2020-04-18T00:57:09;2020-04-17T23:22:07
