{
    "name": "DemandeSoutien",
    "fields": [
        {
            "fieldName": "statut",
            "javadoc": "Statut de la demande",
            "fieldType": "TypeStatut",
            "fieldValues": "EN_COURS,RDV_PROPOSE,RDV_CONFIRME,ANNULE,SOUTIEN_NON_EFFECTUE,SOUTIEN_EFFECTUE",
            "fieldValidateRules": [
                "required"
            ]
        },
        {
            "fieldName": "etiquettes",
            "javadoc": "Etiquettes ou mots-clé de la demande",
            "fieldType": "String",
            "fieldValidateRules": [
                "maxlength",
                "pattern"
            ],
            "fieldValidateRulesMaxlength": "2000",
            "fieldValidateRulesPattern": "^(([a-z]+,)*[a-z]+)?$"
        },
        {
            "fieldName": "niveau",
            "javadoc": "Niveau demandé",
            "fieldType": "TypeNiveau",
            "fieldValues": "SIXIEME,CINQUIEME,QUATRIEME,TROISIEME,SECONDE,PREMIERE,TERMINALE",
            "fieldValidateRules": [
                "required"
            ]
        },
        {
            "fieldName": "matiere",
            "javadoc": "Matiére concernée",
            "fieldType": "TypeMatiere",
            "fieldValues": "MATHS,FRANCAIS,PHILOSOPHIE,PHYSIQUE,CHIMIE,BIOLOGIE,GEOLOGIE,MECANIQUE,ELECTRONIQUE,NSI,SNT",
            "fieldValidateRules": [
                "required"
            ]
        },
        {
            "fieldName": "detail",
            "javadoc": "Detail de la demande de soutien (rich text)",
            "fieldType": "byte[]",
            "fieldTypeBlobContent": "text",
            "fieldValidateRules": [
                "required"
            ]
        },
        {
            "fieldName": "horairesDisponibilites",
            "javadoc": "Detail de la demande de soutien",
            "fieldType": "String",
            "fieldValidateRules": [
                "required"
            ]
        },
        {
            "fieldName": "dateRendezVous",
            "javadoc": "Date de la prise de rendez-vous pour la demande de soutien",
            "fieldType": "Instant"
        },
        {
            "fieldName": "noteApprenant",
            "javadoc": "Note de l'apprenant sur l'aidant",
            "fieldType": "Integer",
            "fieldValidateRules": [
                "min",
                "max"
            ],
            "fieldValidateRulesMin": "1",
            "fieldValidateRulesMax": "10"
        },
        {
            "fieldName": "noteAidant",
            "javadoc": "Note de l'aidant sur l'apprenant",
            "fieldType": "Integer",
            "fieldValidateRules": [
                "min",
                "max"
            ],
            "fieldValidateRulesMin": "1",
            "fieldValidateRulesMax": "10"
        },
        {
            "fieldName": "commentaireApprenant",
            "javadoc": "Commentaire de l'apprenant sur l'aidant (rich text)",
            "fieldType": "byte[]",
            "fieldTypeBlobContent": "text"
        },
        {
            "fieldName": "commentaireAidant",
            "javadoc": "Commentaire de l'aidant sur l'apprenant (rich text)",
            "fieldType": "byte[]",
            "fieldTypeBlobContent": "text"
        },
        {
            "fieldName": "commentaireEnseignant",
            "javadoc": "Commentaire de l'enseignant (rich text)",
            "fieldType": "byte[]",
            "fieldTypeBlobContent": "text"
        },
        {
            "fieldName": "commentaireReferent",
            "javadoc": "Commentaire du référent (rich text)",
            "fieldType": "byte[]",
            "fieldTypeBlobContent": "text"
        },
        {
            "fieldName": "dateLimite",
            "javadoc": "Date limite de la demande de soutien",
            "fieldType": "Instant",
            "fieldValidateRules": [
                "required"
            ]
        },
        {
            "fieldName": "dateCreation",
            "javadoc": "Date de la première création",
            "fieldType": "Instant"
        },
        {
            "fieldName": "dateModification",
            "javadoc": "Date de dernière modification",
            "fieldType": "Instant"
        },
        {
            "fieldName": "dateArchivage",
            "javadoc": "Date d'archivage",
            "fieldType": "Instant"
        }
    ],
    "relationships": [
        {
            "relationshipType": "many-to-one",
            "otherEntityName": "apprenant",
            "otherEntityRelationshipName": "demandeSoutien",
            "relationshipName": "apprenant",
            "otherEntityField": "id"
        },
        {
            "relationshipType": "many-to-one",
            "otherEntityName": "aidant",
            "otherEntityRelationshipName": "demandeSoutien",
            "relationshipName": "aidant",
            "otherEntityField": "id"
        },
        {
            "relationshipType": "many-to-one",
            "otherEntityName": "enseignant",
            "otherEntityRelationshipName": "demandeSoutien",
            "relationshipName": "enseignant",
            "otherEntityField": "id"
        },
        {
            "relationshipType": "many-to-one",
            "otherEntityName": "referent",
            "otherEntityRelationshipName": "demandeSoutien",
            "relationshipName": "referent",
            "otherEntityField": "id"
        }
    ],
    "changelogDate": "20200418133000",
    "javadoc": "Demande de soutien",
    "entityTableName": "demande_soutien",
    "dto": "mapstruct",
    "pagination": "pagination",
    "service": "serviceImpl",
    "jpaMetamodelFiltering": true,
    "fluentMethods": true,
    "readOnly": false,
    "embedded": false,
    "clientRootFolder": "",
    "applications": "*"
}